palety 44 
10	50	0	7	6	2017
14	30	1	2	6	2017
3	25	0	1	11	2017
16	28	1	12	6	2017
18	32	1	22	10	2017
3	39	1	27	8	2017
4	35	0	5	5	2017
20	43	1	12	11	2017
2	40	1	4	5	2017
13	49	0	20	7	2017
7	39	0	12	2	2017
6	38	0	30	1	2017
19	27	0	10	4	2017
18	33	1	17	9	2017
15	36	0	28	3	2017
17	41	1	5	3	2017
8	47	0	30	9	2017
4	31	1	14	7	2017
15	30	1	4	5	2017
9	40	0	7	6	2017
18	44	0	26	8	2017
15	26	0	4	11	2017
16	29	0	8	12	2017
6	47	0	7	10	2017
20	35	1	29	6	2017
14	30	0	1	7	2017
11	41	0	25	4	2017
20	44	0	12	6	2017
17	27	0	11	9	2017
10	43	1	23	3	2017
19	31	0	4	7	2017
10	33	0	21	10	2017
4	34	0	6	4	2017
16	40	1	12	9	2017
20	44	0	1	2	2017
5	42	1	3	7	2017
1	48	0	5	1	2017
5	31	0	14	6	2017
5	27	1	6	4	2017
19	45	0	14	7	2017
6	37	1	5	3	2017
9	47	0	6	10	2017
7	49	1	16	5	2017
10	33	1	25	5	2017
